Simulation,X_side,Y_side,temp_media_inicial,temp_media_final,temp_pared,temp_rad,t
0,4,3,290.81571708723192,288.7657829425944,280.214250655081,280.214250655081,999
1,4,4,289.78720830333202,289.66222731372397,286.8032964994938,286.8032964994938,69
2,4,4,293.79236682484503,291.92847444645304,282.1348642009673,282.1348642009673,918
3,3,4,290.71210021886463,288.84780434541051,280.63228350969626,280.63228350969626,912
4,2,3,293.60405560159268,292.03953673912605,287.0093628308411,287.0093628308411,756
5,2,4,293.89383211268301,292.25167391421269,286.49430067822954,286.49430067822954,801
6,2,2,292.90712792399825,289.75806256934681,284.52931892513,284.52931892513,1423
7,4,2,292.74311117851573,289.38841133186435,281.82413344044096,281.82413344044096,1579
8,3,4,292.30209172003561,290.95417779407995,283.8073129255165,283.8073129255165,668
9,2,2,289.19011888113084,287.15183572458477,282.66497142214996,282.66497142214996,951
10,3,4,291.00265078489974,288.14156250379256,278.3198229841224,278.3198229841224,1374
11,3,2,292.07252470284766,289.61216324992273,283.6177580940865,283.6177580940865,1160
12,2,4,293.09735480150169,287.64266942057947,278.7302108076792,278.7302108076792,2492
13,2,3,292.08163202952397,288.98143856368063,282.4563070003903,282.4563070003903,1441
14,3,3,290.63457659849706,288.46826437602044,280.95486751248484,280.95486751248484,1043
15,2,2,290.66433079658503,287.68406923166549,281.64359328468987,281.64359328468987,1073
16,3,3,293.8657211194764,288.70733497521786,278.18698082689787,278.18698082689787,2366
17,2,4,290.8093562204877,287.23408592123269,279.49699056768554,279.49699056768554,1677
18,4,2,290.70974479740431,288.40172585797751,281.8201759168065,281.8201759168065,1108
19,2,4,293.77866173799572,292.28591437560902,286.7451128719291,286.7451128719291,731
20,4,4,289.81736074294173,289.77007730550605,287.9425013351535,287.9425013351535,28
21,3,4,289.60800472261917,287.94648183364853,280.1269005441621,280.1269005441621,817
22,4,2,289.990726414981,289.83195444757746,287.74751945528305,287.74751945528305,86
23,2,4,289.34434544037089,288.69194163127156,284.7829830458825,284.7829830458825,331
24,2,2,292.30717316485965,285.04609408401689,278.37658809021906,278.37658809021906,3018
25,2,4,291.95187752670887,287.87709704201058,279.7804430983693,279.7804430983693,1897
26,4,2,292.31132554126356,287.3479178933253,278.7000093098599,278.7000093098599,2282
27,3,3,292.84835923434457,291.31812847911419,284.8193646745984,284.8193646745984,749
28,2,2,291.436171255982,286.93105314577787,278.59150046715473,278.59150046715473,1222
29,4,2,290.89077811942576,290.50378471893072,287.3977857267391,287.3977857267391,201
30,3,3,293.78123353921637,291.09472941464014,282.8979668263596,282.8979668263596,1280
31,2,2,289.04186997834995,285.78483535077851,280.4976617060412,280.4976617060412,1468
32,2,3,291.70786613690319,286.79719045258156,279.1673677743367,279.1673677743367,2209
33,4,4,292.3116188931927,291.88860536458554,286.8642385681501,286.8642385681501,220
34,2,2,292.16172471112344,287.70131258976096,281.85966775361345,281.85966775361345,1955
35,3,2,293.94940958337799,288.73672158260086,280.9623682416931,280.9623682416931,2334
36,4,3,292.08848437818006,291.62853481364687,287.20430743456643,287.20430743456643,238
37,4,4,293.23660571387694,290.63916032853803,279.3385119881114,279.3385119881114,1263
38,2,3,292.41016442852293,286.78367682905485,278.82267092486364,278.82267092486364,2503
39,2,3,291.94536373497101,287.03687146653022,279.4078884528041,279.4078884528041,2208
40,4,2,291.87022324813967,287.86807935508551,279.82069098169933,279.82069098169933,1865
41,4,4,290.61398209556444,289.79790230184483,283.0157503461805,283.0157503461805,414
42,4,3,290.20100593951696,288.13856053160322,279.56589569658075,279.56589569658075,1005
43,4,2,293.15556483433312,290.4817468589103,283.5219111161143,283.5219111161143,1274
44,2,2,292.82423191355986,290.44104583384905,285.69304728041345,285.69304728041345,1100
45,2,3,290.73583416099746,288.34870413298523,282.4203195583249,282.4203195583249,1127
46,3,3,291.1468145924901,288.13131098269946,279.5490593899209,279.5490593899209,1428
47,2,4,292.07422481399504,287.11083477706853,278.46295687784885,278.46295687784885,2282
48,2,3,292.32863766153969,290.99476751243412,286.2789544992467,286.2789544992467,650
49,3,4,293.39354032567365,292.79123629672631,287.7905241923921,287.7905241923921,308
50,4,4,293.99198594225891,291.71649458491117,281.0372361540046,281.0372361540046,1112
51,3,2,292.68731172100848,287.59061360858294,279.87049068527364,279.87049068527364,2286
52,2,3,291.97432254489917,290.88903414229441,286.555301614475,286.555301614475,534
53,3,2,293.66153150034393,289.34198086809926,282.0233528278451,282.0233528278451,1962
54,4,2,291.99489340420035,290.09398274172565,283.9910703209516,283.9910703209516,921
55,3,4,289.31276514163477,289.16848021303235,286.5682946447575,286.5682946447575,79
56,3,4,289.44082572766774,288.47762439765455,282.312850873738,282.312850873738,484
57,3,4,292.10091287885558,290.24497192354937,282.04467557047957,282.04467557047957,908
58,4,2,292.33098069696547,289.53307527099241,282.4544358561257,282.4544358561257,1330
59,4,3,289.77664193461845,289.13213308908723,283.9793388784488,283.9793388784488,329
60,2,3,292.60919732667759,286.31413142442244,278.08343523466095,278.08343523466095,2774
61,2,4,291.07802289157286,288.54944751907396,281.7335790806775,281.7335790806775,1208
62,2,2,290.11022589670495,284.99948826727154,278.1490871124085,278.1490871124085,1897
63,3,2,292.47894184834473,290.29856141473522,284.571331000052,284.571331000052,1035
64,3,4,291.77826323813412,289.62340964626907,280.890833226618,280.890833226618,1048
65,4,3,293.0584844964086,292.48671075082513,287.60198687307513,287.60198687307513,293
66,2,3,289.20529076452442,288.69896042267851,285.56768280651994,285.56768280651994,258
67,3,2,293.36755611507061,291.58446435799783,286.2877005032678,286.2877005032678,856
68,3,2,290.81998440476718,286.19481392398444,278.7100515024371,278.7100515024371,2090
69,3,2,292.04620377338273,291.04366761764993,286.84990081658543,286.84990081658543,495
70,4,2,292.18350723860743,286.94490111593473,278.14602676301564,278.14602676301564,2400
71,3,4,291.4260645798999,290.99392280621032,286.69118757999274,286.69118757999274,224
72,2,4,293.95097706473672,289.31448990105673,280.8570699024841,280.8570699024841,2141
73,3,4,291.20399833301957,289.39743864403124,281.2916567603181,281.2916567603181,885
74,4,4,292.66578308350836,292.0436325956835,286.050542095878,286.050542095878,319
75,2,4,293.2338478561033,290.3047366957565,283.1049608669149,283.1049608669149,1389
76,2,3,291.1193665499523,290.70085495634385,287.8191650207715,287.8191650207715,215
77,4,2,292.58003686375793,288.25750042317327,279.9963994618877,279.9963994618877,2005
78,4,3,289.02048318742624,287.6436612441218,280.43217418986353,280.43217418986353,682
79,3,2,292.38363709692436,291.02558231326066,286.27434485811654,286.27434485811654,661
80,3,2,293.32180240255235,289.64646061119055,282.71792239360184,282.71792239360184,1689
81,2,3,291.42045391047674,287.80994004509211,280.92326670891777,280.92326670891777,1661
82,4,4,289.19357116173336,288.69472633723058,283.27817320451965,283.27817320451965,258
83,4,3,292.74819387209243,289.43722460182693,279.0158347244826,279.0158347244826,1579
84,2,4,290.68635927821066,290.13647777456111,286.50804206357265,286.50804206357265,281
85,4,3,290.12347567947285,288.56133388605832,280.94586942161357,280.94586942161357,770
86,2,3,293.2445578149173,287.8900703098131,278.43042265426647,278.43042265426647,1851
87,2,3,293.76302965200335,288.25698520530085,280.3488456085688,280.3488456085688,2454
88,4,4,292.24276326009624,290.62123534077097,281.40861565552467,281.40861565552467,803
89,2,4,292.56044784205324,291.62177594502396,287.0525495320135,287.0525495320135,469
90,3,2,291.55217477836692,290.96576908947492,287.6295104204473,287.6295104204473,297
91,3,2,290.60158997136472,290.21779651971008,287.4442651001879,287.4442651001879,198
92,2,2,290.0486767983806,288.12984781193313,283.742391080144,283.742391080144,899
93,4,3,290.08135326536421,287.93297031797709,279.21148024726824,279.21148024726824,1045
94,3,3,290.56713020593133,290.08042876686108,286.14287482057165,286.14287482057165,250
95,3,3,292.2679514640476,289.23159920430999,280.6246780557901,280.6246780557901,1437
96,3,3,292.47405279884737,291.79088121307018,287.21084509056544,287.21084509056544,346
97,4,2,289.96481451151021,286.30554208244274,278.5044548544174,278.5044548544174,1714
98,2,3,289.59058017686641,288.15390134071589,283.2919021585142,283.2919021585142,697
99,4,3,292.99781986379099,291.62339415373179,284.41822947525645,284.41822947525645,681
100,2,3,293.21570331057274,289.31285644137051,282.2400131437486,282.2400131437486,1786
101,2,4,289.33759321582323,288.52032125620451,284.21445398025736,284.21445398025736,411
102,2,4,293.47018559318104,287.47763701027526,278.303152056687,278.303152056687,2720
103,3,4,293.02342747399632,289.12803919860522,278.0108839235412,278.0108839235412,1843
104,2,3,293.1806439317134,289.59600151141615,282.7267709567961,282.7267709567961,1650
105,4,4,289.13195847880763,288.03883662620103,280.3046869299565,280.3046869299565,549
106,2,3,291.63296468069069,287.87972838971399,280.9000993862508,280.9000993862508,1722
107,2,2,292.50539484633191,287.44441393294238,281.38221084175706,281.38221084175706,2191
108,4,4,291.16564032574666,290.9553227827854,287.31955398383155,287.31955398383155,113
109,2,4,291.91349251796197,291.0271688799856,286.5684270349295,286.5684270349295,444
110,2,2,290.47313464814204,288.73195907667866,284.5014942166293,284.5014942166293,821
111,3,2,293.22265554255654,290.98188885491413,285.19464299683835,285.19464299683835,1062
112,2,2,290.78617693085687,288.24180978508241,283.38292003584354,283.38292003584354,1169
113,3,4,291.15524932317885,290.32221563497404,284.54254041931887,284.54254041931887,421
114,3,3,291.90908696963606,289.62325166860478,281.94448446868057,281.94448446868057,1098
115,4,4,292.67365661885384,292.02921373691441,285.939193167012,285.939193167012,330
116,4,2,293.32925839521334,287.9926106050213,279.1421757719584,279.1421757719584,2442
117,3,4,293.71392654785637,290.45239143856747,280.09576797219376,280.09576797219376,1557
118,3,2,293.7949897296578,290.82217562187981,284.3933932813395,284.3933932813395,1385
119,4,2,289.92634095164607,287.92308329046722,281.6921854088156,281.6921854088156,968
120,2,3,292.88699569369743,288.91322948434083,281.7966393148705,281.7966393148705,1816
121,4,4,293.30402329771101,292.59628329669749,286.2393666392532,286.2393666392532,361
122,2,4,289.5875347104174,288.89430614353711,284.88249565628865,284.88249565628865,351
123,4,2,289.88330131491006,286.51514020489606,278.71513520153684,278.71513520153684,1518
124,3,2,290.21187809292809,287.82055247197064,281.8887156843614,281.8887156843614,1129
125,2,3,292.43483180217305,290.33516379323407,284.6908382792603,284.6908382792603,999
126,4,2,289.58397869364211,289.24909501235987,286.3359714987163,286.3359714987163,175
127,3,3,292.16032512124178,290.58053011654522,283.9928647857644,283.9928647857644,772
128,2,3,290.67206568814106,289.51028036278831,285.05386081392015,285.05386081392015,570
129,2,2,292.27151391075893,287.85840187564133,282.0349712088824,282.0349712088824,1936
130,4,4,290.85235906410946,290.33559984120149,284.83192366193407,284.83192366193407,267
131,2,4,289.33614687481986,288.07370998654301,282.90178367172217,282.90178367172217,623
132,3,4,291.32171724886211,289.91071457520513,282.6205857266538,282.6205857266538,698
133,4,3,292.20344782865828,291.29947017344404,285.30286562751985,285.30286562751985,455
134,2,4,290.79797713770762,290.35980211475641,287.07525675783955,287.07525675783955,226
135,2,2,291.61656724768858,288.49239882748424,283.2784667522598,283.2784667522598,1413
136,4,3,289.85571442029044,289.50776625376716,285.6091265409401,285.6091265409401,182
137,4,2,293.95451384579604,289.73776301968223,281.5459126411552,281.5459126411552,1959
138,4,3,291.82907817305113,291.2152344332913,286.17467504482363,286.17467504482363,314
139,2,2,293.65668689664108,290.92145640571204,285.93853558976923,285.93853558976923,1250
140,3,2,293.34787008250527,292.0585074064885,287.4057498137242,287.4057498137242,629
141,4,2,291.2046916116264,286.59557513039687,278.15425553825725,278.15425553825725,2129
142,2,4,290.04320388355887,289.1958800616473,284.8201796980727,284.8201796980727,425
143,4,4,289.94029247101474,289.13275806616542,282.3845181307774,282.3845181307774,410
144,2,3,292.71995570944341,290.82556298277171,285.39988140921696,285.39988140921696,906
145,4,3,292.31848090608128,290.21340288200656,281.5671468480954,281.5671468480954,1025
146,4,4,293.98777390346214,293.09075335505128,286.01683797943343,286.01683797943343,454
147,2,2,293.98234404338393,288.58546946750823,282.41217810370637,282.41217810370637,2321
148,3,2,290.01325367727992,288.93440705003087,284.61145800995916,284.61145800995916,531
149,2,2,289.02600477853451,287.93081461320594,284.40042967366185,284.40042967366185,531
150,4,3,293.4956148169428,290.85000779667968,281.3385670778914,281.3385670778914,1275
151,2,2,290.01690194047802,286.71043616729747,281.39570241319694,281.39570241319694,1488
152,4,2,293.56950956952011,289.11314848535659,280.7665405735075,280.7665405735075,2063
153,4,4,289.74351540610678,289.58372451203638,286.3805457767557,286.3805457767557,87
154,2,2,289.81778903831048,285.02213363773922,279.05296492478885,279.05296492478885,2087
155,4,3,292.0750877574842,290.43834730347152,282.667239310879,282.667239310879,805
156,4,4,289.42511497436766,288.37758669573191,280.79050342245176,280.79050342245176,527
157,3,4,290.03757192872581,289.91218523103834,287.47016080587866,287.47016080587866,69
158,4,3,292.07017103346743,290.11043247753878,281.72069754518833,281.72069754518833,957
159,3,2,293.97087007974011,290.50079425984325,283.70959947538375,283.70959947538375,1601
160,4,4,290.33175020930378,290.24646567039144,287.8430553598648,287.8430553598648,48
161,3,4,291.5400493997858,289.29057112470474,280.39926393063905,280.39926393063905,1092
162,2,2,292.43835139164196,289.61700772677881,284.57965557812366,284.57965557812366,1286
163,4,4,289.26499620976671,289.08732967631278,285.7192225539568,285.7192225539568,96
164,2,2,290.42878223812937,287.57879535200783,282.52381278190734,282.52381278190734,1298
165,4,2,292.74992200273124,288.99112826245329,281.1166666605056,281.1166666605056,1758
166,3,4,292.53844987067032,290.28660949507395,281.390917297411,281.390917297411,1093
167,2,3,292.78793976808345,288.29927666551919,280.88750825744654,280.88750825744654,2033
168,2,4,291.78633172481119,290.74971239314561,285.98629586083536,285.98629586083536,516
169,2,2,293.42595455260044,286.493258870994,279.89857656828156,279.89857656828156,2898
170,2,4,290.78397057934211,286.60278610152562,278.433071104769,278.433071104769,1943
171,4,2,293.43826716033306,287.84991717596984,278.87021436344315,278.87021436344315,2549
172,4,3,293.54086164983335,291.88370454284478,284.07327643441283,284.07327643441283,815
173,4,3,291.99344054719813,291.21124564582982,285.589319879704,285.589319879704,396
174,2,4,291.35768783712825,288.35098065374149,281.08231574740665,281.08231574740665,1424
175,2,4,292.96368324995552,288.56511418375254,280.25521162345024,280.25521162345024,2038
176,4,2,289.33181571107383,289.25383541248215,287.7399214195684,287.7399214195684,44
177,4,2,293.65833257139417,291.22296855568425,284.50480858971054,284.50480858971054,1166
178,3,4,292.36098454052581,290.54413747847769,282.4196542525769,282.4196542525769,890
179,4,3,291.48214830395318,289.80936553871811,281.96535634369144,281.96535634369144,822
180,3,2,291.93812819293993,288.97757404967348,282.55951694812325,282.55951694812325,1380
181,3,2,292.28274076850261,291.56483944612205,287.92347920800444,287.92347920800444,360
182,4,3,293.95103542448663,290.20065422509686,279.24953975481895,279.24953975481895,1778
183,4,3,293.22380370227626,291.29121107668658,282.9493234972989,282.9493234972989,944
184,3,3,291.31854038321893,287.9531567011154,278.9931376129455,278.9931376129455,1584
185,3,2,289.50897919552062,288.6844951102733,284.8230063357897,284.8230063357897,411
186,3,2,290.10570214396608,286.85077997917267,280.21076790569253,280.21076790569253,1508
187,2,4,289.38875414295484,289.23006468491718,287.14671291538576,287.14671291538576,86
188,2,3,293.70978955334425,287.75132046838286,279.65210805714395,279.65210805714395,2638
189,4,3,291.01664946697889,288.82697769002448,280.03445002691717,280.03445002691717,1064
190,3,4,289.84374269811912,289.7339264363797,287.43793658414387,287.43793658414387,61
191,4,4,289.6664946015589,289.00974140390457,282.8662961303096,282.8662961303096,336
192,3,4,293.21711071730391,290.77809607902094,281.5826427666005,281.5826427666005,1180
193,2,2,290.5810463634179,286.00276443434456,280.1161126166409,280.1161126166409,2002
194,2,3,292.40790621817962,287.08713522463142,278.35754857772565,278.35754857772565,2051
195,2,3,292.87469354414446,290.11226929844838,283.85358589523696,283.85358589523696,1293
196,2,4,291.89628429617511,287.72694483813831,279.5656198804629,279.5656198804629,1938
197,4,2,291.94697398793681,288.12936003226349,280.21246108947525,280.21246108947525,1784
198,2,2,289.91769425413906,289.54302208984024,287.29138556070967,287.29138556070967,192
199,4,3,290.39088572638406,289.31074107132747,282.8238274265118,282.8238274265118,540
