Simulation,X_side,Y_side,temp_media_inicial,temp_media_final,temp_pared,temp_rad,t
0,4,2,291.45517450585754,287.66906412118902,279.77457818737435,279.77457818737435,1770
1,4,2,290.22929076219765,289.5562257228251,285.59385092199534,285.59385092199534,341
2,4,4,290.35020480830059,288.52260437101239,278.81399168946285,278.81399168946285,901
3,4,4,291.94840156102418,291.68277634675138,287.630004963124,287.630004963124,141
4,2,4,291.24306442460187,288.41584254390824,281.30903964716066,281.30903964716066,1343
5,2,3,290.19554520969092,285.70791906539978,278.297862903132,278.297862903132,2033
6,4,2,293.65060495712356,289.56389596053384,281.45848162360676,281.45848162360676,1902
7,4,2,293.12708883620684,287.71963895826048,278.8318212627895,278.8318212627895,2472
8,4,3,293.85462325957718,292.70832186264028,286.05150211479105,286.05150211479105,572
9,2,4,293.11880851536233,288.57030875209261,280.16668151712213,280.16668151712213,2103
10,4,2,290.72270833983754,286.54712390702707,278.38244742407494,278.38244742407494,1941
11,3,2,289.72991274306696,289.2469262917179,286.1821654736647,286.1821654736647,247
12,3,4,291.31752919733162,289.76754806460275,282.17621257037666,282.17621257037666,764
13,4,4,291.72799869643643,290.30474898683195,281.6059121637556,281.6059121637556,708
14,2,2,291.33167012984126,289.24792271959484,284.7253619497632,284.7253619497632,971
15,4,4,291.78331047364912,289.92985210751641,280.15985718908684,280.15985718908684,913
16,2,2,289.13330614505855,288.18756336548552,284.85925684763225,284.85925684763225,462
17,2,4,290.09982180018147,287.6285564120297,280.87171402629235,280.87171402629235,1182
18,2,4,293.75107678284212,287.58975291293262,278.33799837664293,278.33799837664293,2791
19,3,2,291.37939107136253,289.18123640844163,283.43637802823304,283.43637802823304,1043
20,2,3,291.96604968776592,286.12309623955599,278.0706782385087,278.0706782385087,2591
21,2,4,293.12397222867179,287.55910448084467,278.5911022393892,278.5911022393892,2539
22,3,4,292.89805359183811,291.85149175265565,285.4552038635689,285.4552038635689,524
23,4,2,292.71312239494188,291.24860950051902,285.75170837309076,285.75170837309076,718
24,3,3,292.45853346164671,290.59837044297456,283.54280775390055,283.54280775390055,902
25,2,3,290.25821953144265,286.72997971743251,279.8991920354708,279.8991920354708,1626
26,2,4,291.43223896568958,287.00427302333196,278.67644842555825,278.67644842555825,2051
27,3,4,291.94926063984798,289.19502910755972,279.52522801768976,279.52522801768976,1325
28,3,3,291.4490410047261,289.30002627193801,281.81096875432166,281.81096875432166,1035
29,4,2,293.64546786973284,292.28943201291474,286.9623787044365,286.9623787044365,667
30,3,4,289.96933226040034,289.66776967763883,286.0192750310475,286.0192750310475,159
31,2,3,290.65322233544663,290.22691474711405,287.3231738421596,287.3231738421596,219
32,4,3,292.53906772226355,289.86273288916016,280.30533397598225,280.30533397598225,1289
33,3,4,293.22336888662215,291.04665193387297,282.2761113955864,282.2761113955864,1058
34,4,3,291.46216299355086,289.91923684393362,282.344798796154,282.344798796154,761
35,2,4,291.07533236443527,290.03622951905072,285.2669935409362,285.2669935409362,517
36,3,4,289.94624761172781,288.81193083885375,282.18401086779164,282.18401086779164,566
37,3,2,293.90411323295433,291.56048514723449,285.67432619553153,285.67432619553153,1108
38,4,3,291.2873923582456,291.07287588239336,287.95268485331457,287.95268485331457,115
39,3,3,290.73381979621723,290.42884346893049,287.240972681646,287.240972681646,160
40,4,3,290.44224888235522,290.05398533550209,285.95396378602436,285.95396378602436,202
41,4,3,290.38669682223832,290.25014647290732,287.7149782083459,287.7149782083459,75
42,2,4,292.50749364972859,288.63084698078075,280.67175623030187,280.67175623030187,1810
43,4,4,290.60541200295216,290.08442691123287,284.55903727369173,284.55903727369173,269
44,3,2,291.39935281492393,288.51424143959713,282.15600659423967,282.15600659423967,1347
45,3,2,289.10571330445504,289.02003808757138,287.6033204803709,287.6033204803709,48
46,4,3,292.90149070862026,291.97715087317493,285.92216593042934,285.92216593042934,465
47,2,2,290.64155301769603,287.71537111974675,282.6146473113674,282.6146473113674,1330
48,2,3,290.62937671940563,289.97181557705198,286.4646210430958,286.4646210430958,331
49,4,4,290.97136088040713,288.9930340397143,278.94103725701586,278.94103725701586,972
