Simulation,X_side,Y_side,temp_media_inicial,temp_media_final,temp_pared,temp_rad,t
0,4,2,286.18461646192378,290.02343743806983,287.70326806414715,353.650280249055,1717
1,4,4,285.8030695207363,289.86417026169522,283.4947525548718,363.4709451125038,1937
2,2,3,279.30931273531991,290.49893791857386,284.335805013167,350.95504276883315,2855
3,2,3,284.01072815465574,291.02476364856534,284.96351508015994,358.1251306161419,1253
4,4,2,278.29480352639342,284.74967225718217,281.3964239573235,365.05282449741605,2757
5,4,3,278.43253522250046,288.32800425518224,287.47195049510333,366.739432005861,4350
6,2,3,278.37255764964999,292.35327538947695,285.9716772422427,353.98221469054545,3670
7,2,2,280.38140233333627,289.86852759359107,283.93967073127584,351.0028353780614,2325
8,2,2,282.95834361986141,289.86231508973634,283.94199052679613,360.4869653118237,1165
9,4,3,287.99806107234599,291.06126329098561,287.81843575915855,351.1719581598539,1449
